tb_float2fxp_pipe.vcd
$date
	Wed Sep 03 21:01:49 2025
$end
$version
	Icarus Verilog
$end
$timescale
	1ps
$end
$scope module tb_float2fxp_pipe $end
$var wire 1 ! overflow $end
$var wire 1 " out_valid $end
$var wire 8 # out [7:0] $end
$var parameter 32 $ ROUND $end
$var parameter 32 % WOF $end
$var parameter 32 & WOI $end
$var reg 1 ' clk $end
$var reg 1 ( ena $end
$var reg 32 ) in [31:0] $end
$var reg 1 * rstn $end
$var integer 32 + i [31:0] $end
$scope module u_float2fxp $end
$var wire 1 ' clk $end
$var wire 1 ( ena $end
$var wire 32 , in [31:0] $end
$var wire 1 * rstn $end
$var wire 24 - val [23:0] $end
$var wire 1 . sign $end
$var wire 8 / exp [7:0] $end
$var parameter 8 0 ONEO $end
$var parameter 32 1 ROUND $end
$var parameter 32 2 WOF $end
$var parameter 32 3 WOI $end
$var reg 32 4 expinit [31:0] $end
$var reg 8 5 out [7:0] $end
$var reg 1 " out_valid $end
$var reg 8 6 outinit [7:0] $end
$var reg 8 7 outl [7:0] $end
$var reg 8 8 outt [7:0] $end
$var reg 1 ! overflow $end
$var reg 1 9 round_s2 $end
$var reg 1 : roundinit $end
$var reg 8 ; shifted_s2 [7:0] $end
$var reg 1 < sign_s2 $end
$var reg 1 = signinit $end
$var reg 1 > signl $end
$var reg 1 ? valid_s1 $end
$var reg 1 @ valid_s2 $end
$var reg 1 A valid_s3 $end
$var reg 1 B valid_s4 $end
$var integer 32 C sh [31:0] $end
$scope begin genblk1 $end
$upscope $end
$upscope $end
$upscope $end
$enddefinitions $end
$comment Show the parameter values. $end
$dumpall
b1000 3
b0 2
b1 1
b1 0
b1000 &
b0 %
b1 $
$end
#0
$dumpvars
bx C
0B
0A
0@
0?
0>
0=
0<
b0 ;
0:
09
bx 8
b0 7
b0 6
b0 5
b0 4
b0 /
0.
b0 -
b0 ,
bx +
0*
b0 )
0(
0'
b0 #
0"
0!
$end
#5000
1'
#10000
0'
#15000
1'
#20000
b100000000000000000000000 -
b1111111 /
0'
1(
b111111100000000000000000000000 )
b111111100000000000000000000000 ,
b0 +
1*
#25000
b11111111111111111111111111111001 4
1?
b10000000 6
1'
#30000
0'
0(
#35000
0?
b1 ;
1@
b111 C
1'
#40000
b10000000 /
0'
1(
b1000000000000000000000000000000 )
b1000000000000000000000000000000 ,
b1 +
#45000
b1 7
1A
0@
b11111111111111111111111111111010 4
1?
b1 8
1'
#50000
0'
0(
#55000
0?
b10 ;
1@
0A
b1 #
b1 5
1"
1B
b110 C
1'
#60000
b101000000000000000000000 -
0'
1(
b1000000001000000000000000000000 )
b1000000001000000000000000000000 ,
b10 +
#65000
0"
0B
b10 7
1A
0@
1?
b10100000 6
b10 8
1'
#70000
0'
0(
#75000
0?
19
1@
0A
b10 #
b10 5
1"
1B
1'
#80000
1.
b1111111 /
b100000000000000000000000 -
0'
1(
b10111111100000000000000000000000 )
b10111111100000000000000000000000 ,
b11 +
#85000
0"
0B
b11 7
1A
0@
b11111111111111111111111111111001 4
1=
1?
b10000000 6
b11 8
1'
#90000
0'
0(
#95000
0?
09
b1 ;
1@
1<
0A
b11 #
b11 5
1"
1B
b111 C
1'
#100000
b10000000 /
0'
1(
b11000000000000000000000000000000 )
b11000000000000000000000000000000 ,
b100 +
#105000
0"
0B
b11111111 7
1>
1A
0@
b11111111111111111111111111111010 4
1?
b11111111 8
1'
#110000
0'
0(
#115000
0?
b10 ;
1@
0A
b11111111 #
b11111111 5
1"
1B
b110 C
1'
#120000
0.
b0 -
b0 /
0'
1(
b0 )
b0 ,
b101 +
#125000
0"
0B
b11111110 7
1A
0@
b11111111111111111111111101111010 4
0=
1?
b0 6
b11111110 8
1'
#130000
0'
0(
#135000
0?
b0 ;
1@
0<
0A
b11111110 #
b11111110 5
1"
1B
b10000110 C
1'
#140000
b100000000000000000000000 -
b11111111 /
0'
1(
b1111111100000000000000000000000 )
b1111111100000000000000000000000 ,
b110 +
#145000
0"
0B
b0 7
0>
1A
0@
b0 4
1?
b10000000 6
b0 8
1'
#150000
0'
0(
#155000
0?
b10000000 ;
1@
0A
b0 #
b0 5
1"
1B
1'
#160000
1.
0'
1(
b11111111100000000000000000000000 )
b11111111100000000000000000000000 ,
b111 +
#165000
0"
0B
b10000000 7
1A
0@
1=
1?
b10000000 8
1'
#170000
0'
0(
#175000
0?
1@
1<
0A
1!
b1111111 #
b1111111 5
1"
1B
1'
#180000
0.
b110000000000000000000000 -
0'
1(
b1111111110000000000000000000000 )
b1111111110000000000000000000000 ,
b1000 +
#185000
0"
0B
1>
1A
0@
0=
1?
b11000000 6
1'
#190000
0'
0(
#195000
0?
b11000000 ;
1@
0<
0A
0!
b10000000 #
b10000000 5
1"
1B
1'
#200000
b10000010 /
b101000000000000000000000 -
0'
1(
b1000001001000000000000000000000 )
b1000001001000000000000000000000 ,
b1001 +
#205000
0"
0B
b11000000 7
0>
1A
0@
b11111111111111111111111111111100 4
1?
b10100000 6
b11000000 8
1'
#210000
0'
0(
#215000
0?
b1010 ;
1@
0A
1!
b1111111 #
b1111111 5
1"
1B
b100 C
1'
#220000
0'
b1010 +
#225000
0"
0B
b1010 7
1A
0@
b1010 8
1'
#230000
0'
#235000
0A
0!
b1010 #
b1010 5
1"
1B
1'
#240000
0'
#245000
0"
0B
1'
