tb_fp32_adder.vcd
$date
	Sun Aug 31 14:31:20 2025
$end
$version
	Icarus Verilog
$end
$timescale
	1ps
$end
$scope module tb_fp32_adder $end
$var wire 1 ! valid $end
$var wire 32 " s [31:0] $end
$var reg 32 # a [31:0] $end
$var reg 32 $ b [31:0] $end
$var reg 1 % clk $end
$var reg 1 & ena $end
$var reg 2 ' rm [1:0] $end
$var reg 1 ( rstn $end
$var reg 1 ) sel $end
$scope module dut $end
$var wire 32 * a [31:0] $end
$var wire 32 + b [31:0] $end
$var wire 1 % clk $end
$var wire 1 & ena $end
$var wire 1 , frac_plus_3_s3 $end
$var wire 1 - overflow_s3 $end
$var wire 2 . rm [1:0] $end
$var wire 1 ( rstn $end
$var wire 1 ) sel $end
$var wire 5 / zeros_s3 [4:0] $end
$var wire 32 0 s_wire_s3 [31:0] $end
$var wire 25 1 frac_round_s3 [24:0] $end
$var wire 27 2 f4_s3 [26:0] $end
$var wire 27 3 f3_s3 [26:0] $end
$var wire 27 4 f2_s3 [26:0] $end
$var wire 27 5 f1_s3 [26:0] $end
$var wire 27 6 f0_s3 [26:0] $end
$var wire 8 7 exponent_s3 [7:0] $end
$var reg 32 8 a_s1 [31:0] $end
$var reg 28 9 aligned_large_frac_s2 [27:0] $end
$var reg 28 : aligned_small_frac_s2 [27:0] $end
$var reg 32 ; b_s1 [31:0] $end
$var reg 28 < cal_frac_s2 [27:0] $end
$var reg 28 = cal_frac_s3 [27:0] $end
$var reg 1 > exchange_s1 $end
$var reg 8 ? exp0_s3 [7:0] $end
$var reg 8 @ exp_diff_s1 [7:0] $end
$var reg 1 A fp_large_expo_is_ff_s1 $end
$var reg 1 B fp_large_frac_is_00_s1 $end
$var reg 1 C fp_large_hidden_bit_s1 $end
$var reg 1 D fp_large_is_inf_s1 $end
$var reg 32 E fp_large_s1 [31:0] $end
$var reg 1 F fp_small_expo_is_ff_s1 $end
$var reg 1 G fp_small_frac_is_00_s1 $end
$var reg 1 H fp_small_hidden_bit_s1 $end
$var reg 1 I fp_small_is_inf_s1 $end
$var reg 32 J fp_small_s1 [31:0] $end
$var reg 27 K frac0_s3 [26:0] $end
$var reg 23 L inf_nan_frac_s1 [22:0] $end
$var reg 23 M inf_nan_frac_s2 [22:0] $end
$var reg 23 N inf_nan_frac_s3 [22:0] $end
$var reg 24 O large_frac24_s1 [23:0] $end
$var reg 24 P large_frac24_s2 [23:0] $end
$var reg 23 Q nan_frac_s1 [22:0] $end
$var reg 1 R op_sub_s1 $end
$var reg 1 S op_sub_s2 $end
$var reg 2 T rm_s1 [1:0] $end
$var reg 2 U rm_s2 [1:0] $end
$var reg 2 V rm_s3 [1:0] $end
$var reg 32 W s [31:0] $end
$var reg 1 X s_is_inf_s1 $end
$var reg 1 Y s_is_inf_s2 $end
$var reg 1 Z s_is_inf_s3 $end
$var reg 1 [ s_is_nan_s1 $end
$var reg 1 \ s_is_nan_s2 $end
$var reg 1 ] s_is_nan_s3 $end
$var reg 1 ^ sel_s1 $end
$var reg 8 _ shift_amount_s1 [7:0] $end
$var reg 1 ` sign_s1 $end
$var reg 1 a sign_s2 $end
$var reg 1 b sign_s3 $end
$var reg 1 c small_den_only_s1 $end
$var reg 24 d small_frac24_s1 [23:0] $end
$var reg 27 e small_frac27_s1 [26:0] $end
$var reg 27 f small_frac27_s2 [26:0] $end
$var reg 50 g small_frac50_s1 [49:0] $end
$var reg 8 h temp_exp_s1 [7:0] $end
$var reg 8 i temp_exp_s2 [7:0] $end
$var reg 8 j temp_exp_s3 [7:0] $end
$var reg 1 ! valid $end
$var reg 1 k valid_s1 $end
$var reg 1 l valid_s2 $end
$var reg 1 m valid_s3 $end
$scope function final_result $end
$var reg 8 n exponent [7:0] $end
$var reg 23 o fraction [22:0] $end
$var reg 23 p inf_nan_frac [22:0] $end
$var reg 1 q is_inf $end
$var reg 1 r is_nan $end
$var reg 1 s overflow $end
$var reg 2 t rm [1:0] $end
$var reg 1 u sign $end
$upscope $end
$upscope $end
$upscope $end
$enddefinitions $end
$comment Show the parameter values. $end
$dumpall
$end
#0
$dumpvars
0u
b0 t
0s
0r
0q
b0 p
b0 o
b0 n
0m
0l
0k
b0 j
b0 i
b0 h
b0 g
b0 f
b0 e
b0 d
0c
0b
0a
0`
b0 _
0^
0]
0\
0[
0Z
0Y
0X
b0 W
b0 V
b0 U
b0 T
0S
0R
b10000000000000000000000 Q
b0 P
b0 O
b0 N
b0 M
b0 L
b0 K
b0 J
0I
0H
1G
0F
b0 E
0D
0C
1B
0A
b0 @
b0 ?
0>
b0 =
b0 <
b0 ;
b0 :
b0 9
b0 8
b0 7
b0 6
b0 5
b0 4
b0 3
b0 2
b0 1
b0 0
b11111 /
b0 .
0-
0,
b0 +
b0 *
0)
0(
b0 '
0&
0%
b0 $
b0 #
b0 "
0!
$end
#5000
b10000000000000000000000 Q
1G
1B
1%
#10000
0%
#15000
b10000000000000000000000 Q
1G
1B
1%
#20000
b100000000000000000000000000 e
b10000000000000000000000000000000000000000000000000 g
0B
b10000000 h
b100000000000000000000000 d
b110000000000000000000000 O
1H
1C
b1000000000000000000000000000000 J
b1000000010000000000000000000000 E
1>
0%
1&
b1000000010000000000000000000000 $
b1000000010000000000000000000000 +
b1000000000000000000000000000000 #
b1000000000000000000000000000000 *
1(
#25000
b1010000000000000000000000000 <
b100000000000000000000000000 :
b110000000000000000000000000 9
b100000000000000000000000000 f
b110000000000000000000000 P
b10000000 i
1k
b1000000010000000000000000000000 ;
b1000000000000000000000000000000 8
1%
#30000
0%
0&
#35000
b100000000000000000000000000 6
b10000000000000000000000000 5
b10000000000000000000000000 4
b10000000000000000000000000 3
b1000000101000000000000000000000 0
b1000000000000000000000 o
b10000001 n
b10000000000000000000000000 2
b10000001 7
b101000000000000000000000 1
b10000001 ?
b101000000000000000000000000 K
b1 /
0k
1l
b10000000 j
b1010000000000000000000000000 =
1%
#40000
0%
#45000
1m
0l
1%
#50000
0%
#55000
0m
1!
b1000000101000000000000000000000 "
b1000000101000000000000000000000 W
1%
#60000
b1100000000000000000000000 e
b110000000000000000000000000000000000000000000000 g
b10 _
b10 @
0G
1R
b10000001 h
b110000000000000000000000 d
b101100000000000000000000 O
b111111110000000000000000000000 J
b1000000101100000000000000000000 E
0>
1&
1)
b111111110000000000000000000000 $
b111111110000000000000000000000 +
b1000000101100000000000000000000 #
b1000000101100000000000000000000 *
0%
#65000
0!
b100000000000000000000000000 <
b1100000000000000000000000 :
b101100000000000000000000000 9
b1100000000000000000000000 f
b101100000000000000000000 P
1S
b10000001 i
1k
1^
b111111110000000000000000000000 ;
b1000000101100000000000000000000 8
1%
#70000
0%
0&
#75000
b0 /
b100000000000000000000000000 6
b100000000000000000000000000 5
b0 o
b100000000000000000000000000 4
b1000000100000000000000000000000 0
b10000001 n
b100000000000000000000000000 3
b100000000000000000000000 1
b10000001 7
b100000000000000000000000000 2
b100000000000000000000000000 K
b10000001 ?
0k
1l
b10000001 j
b100000000000000000000000000 =
1%
#80000
0%
#85000
1m
0l
1%
#90000
0%
#95000
0m
1!
b1000000100000000000000000000000 "
b1000000100000000000000000000000 W
1%
#100000
b100100000000000000000000000 e
b10010000000000000000000000000000000000000000000000 g
b0 _
b0 @
b10000000 h
b100100000000000000000000 d
b110000000000000000000000 O
b11000000000100000000000000000000 J
b1000000010000000000000000000000 E
1&
0)
b11000000000100000000000000000000 $
b11000000000100000000000000000000 +
b1000000010000000000000000000000 #
b1000000010000000000000000000000 *
0%
#105000
0!
b1100000000000000000000000 <
b100100000000000000000000000 :
b110000000000000000000000000 9
b100100000000000000000000000 f
b110000000000000000000000 P
b10000000 i
1k
0^
b11000000000100000000000000000000 ;
b1000000010000000000000000000000 8
1%
#110000
0%
0&
#115000
b10000000000000000000000 o
b110000000000000000000000 1
b110000000000000000000000000 K
b110000000000000000000000000 6
b10 /
b110000000000000000000000000 5
b1100000000000000000000000 4
b111111010000000000000000000000 0
b1111110 n
b1100000000000000000000000 3
b1111110 7
b1100000000000000000000000 2
b1111110 ?
0k
1l
b10000000 j
b1100000000000000000000000 =
1%
#120000
0%
#125000
1m
0l
1%
#130000
0%
#135000
0m
1!
b111111010000000000000000000000 "
b111111010000000000000000000000 W
1%
#140000
b1 e
b100000000000000000000000 g
b10000000 _
b10000000 @
1X
1D
1G
1B
1A
0R
b11111111 h
b100000000000000000000000 d
b100000000000000000000000 O
b111111100000000000000000000000 J
b1111111100000000000000000000000 E
1&
b111111100000000000000000000000 $
b111111100000000000000000000000 +
b1111111100000000000000000000000 #
b1111111100000000000000000000000 *
0%
#145000
0!
b100000000000000000000000001 <
b1 :
b100000000000000000000000000 9
b1 f
b100000000000000000000000 P
1Y
0S
b11111111 i
1k
b111111100000000000000000000000 ;
b1111111100000000000000000000000 8
1%
#150000
0%
0&
#155000
b0 o
b100000000000000000000000 1
1s
b100000000000000000000000001 K
1-
b100000000000000000000000001 6
b100000000000000000000000001 5
b0 /
b100000000000000000000000001 4
b11111111 n
b100000000000000000000000001 3
b11111111 7
b100000000000000000000000001 2
b1111111100000000000000000000000 0
1q
b11111111 ?
0k
1l
1Z
b11111111 j
b100000000000000000000000001 =
1%
#160000
0%
#165000
1m
0l
1%
#170000
0%
#175000
0m
1!
b1111111100000000000000000000000 "
b1111111100000000000000000000000 W
1%
#180000
b1111111 _
b1111111 @
b10000010010001101000101 L
b10000010010001101000101 Q
1[
0X
0D
0B
1R
b110000010010001101000101 O
b1000000000000000000000000000000 J
b1111111110000010010001101000101 E
1&
1)
b1000000000000000000000000000000 $
b1000000000000000000000000000000 +
b1111111110000010010001101000101 #
b1111111110000010010001101000101 *
0%
#185000
0!
b110000010010001101000100111 <
b110000010010001101000101000 9
b110000010010001101000101 P
b10000010010001101000101 M
1\
0Y
1S
1k
1^
b1000000000000000000000000000000 ;
b1111111110000010010001101000101 8
1%
#190000
0%
0&
#195000
1,
b10000010010001101000101 o
b110000010010001101000101 1
b110000010010001101000100111 K
b110000010010001101000100111 6
b110000010010001101000100111 5
b110000010010001101000100111 4
b110000010010001101000100111 3
b110000010010001101000100111 2
b11111111110000010010001101000101 0
b10000010010001101000101 p
0q
1r
0k
1l
b10000010010001101000101 N
1]
0Z
b110000010010001101000100111 =
1%
#200000
0%
#205000
1m
0l
1%
#210000
0%
#215000
0m
1!
b11111111110000010010001101000101 "
b11111111110000010010001101000101 W
1%
#220000
0%
#225000
0!
1%
